…
<img src="hw04_files/figure-html/unnamed-chunk-2-1.png" style="display: block; margin: auto;" />


**Putting data back into long format**

```text
wide %>% 
  pivot_longer(cols = c(`United States`, Djibouti),
               names_to  = "Country",
               values_to = "Life_Expectancy") 
```

```
## # A tibble: 24 x 3
##     year Country       Life_Expectancy
##    <int> <chr>                   <dbl>
##  1  1952 United States            68.4
##  2  1952 Djibouti                 34.8
##  3  1957 United States            69.5
##  4  1957 Djibouti                 37.3
##  5  1962 United States            70.2
##  6  1962 Djibouti                 39.7
##  7  1967 United States            70.8
##  8  1967 Djibouti                 42.1
##  9  1972 United States            71.3
## 10  1972 Djibouti                 44.4
## # ... with 14 more rows
```
…
**Putting data back into long format**

```text
(wide2 %>% 
pivot_longer(cols= c(starts_with("lifeExp"), starts_with("gdpPercap")),
               names_to  = c(".value","Country"),
              names_sep="_")) 
```

```
## # A tibble: 24 x 4
##     year Country lifeExp gdpPercap
##    <int> <chr>     <dbl>     <dbl>
##  1  1952 Cuba       59.4     5587.
##  2  1952 Jamaica    58.5     2899.
##  3  1957 Cuba       62.3     6092.
##  4  1957 Jamaica    62.6     4757.
##  5  1962 Cuba       65.2     5181.
##  6  1962 Jamaica    65.6     5246.
##  7  1967 Cuba       68.3     5690.
##  8  1967 Jamaica    67.5     6125.
##  9  1972 Cuba       70.7     5305.
## 10  1972 Jamaica    69       7434.
## # ... with 14 more rows
```
…
## 3.1:

##### For each guest in the guestlist (guest tibble), add a column for email address, which can be found in the email tibble.


```text
email_name <- email %>% 
  separate_rows(guest, sep = ", ") %>%
  rename(name = guest)
email_name
```

```
## # A tibble: 28 x 2
##    name            email              
##    <chr>           <chr>              
##  1 Sommer Medrano  sommm@gmail.com    
##  2 Phillip Medrano sommm@gmail.com    
##  3 Blanka Medrano  sommm@gmail.com    
##  4 Emaan Medrano   sommm@gmail.com    
##  5 Blair Park      bpark@gmail.com    
##  6 Nigel Webb      bpark@gmail.com    
##  7 Sinead English  singlish@hotmail.ca
##  8 Ayra Marks      marksa42@gmail.com 
##  9 Jolene Welsh    jw1987@hotmail.com 
## 10 Hayley Booker   jw1987@hotmail.com 
## # ... with 18 more rows
```

```text
email_name %>% 
  separate(name, into = c("First", "Last"))
```

```
## # A tibble: 28 x 3
##    First   Last    email              
##    <chr>   <chr>   <chr>              
##  1 Sommer  Medrano sommm@gmail.com    
##  2 Phillip Medrano sommm@gmail.com    
##  3 Blanka  Medrano sommm@gmail.com    
##  4 Emaan   Medrano sommm@gmail.com    
##  5 Blair   Park    bpark@gmail.com    
##  6 Nigel   Webb    bpark@gmail.com    
##  7 Sinead  English singlish@hotmail.ca
##  8 Ayra    Marks   marksa42@gmail.com 
##  9 Jolene  Welsh   jw1987@hotmail.com 
## 10 Hayley  Booker  jw1987@hotmail.com 
## # ... with 18 more rows
```

```text
left_join(guest, email_name, by = "name") %>% 
  select(party, name, email, everything())
```

```
## # A tibble: 30 x 8
##    party name  email meal_wedding meal_brunch attendance_wedd~
##    <dbl> <chr> <chr> <chr>        <chr>       <chr>           
##  1     1 Somm~ somm~ PENDING      PENDING     PENDING         
##  2     1 Phil~ somm~ vegetarian   Menu C      CONFIRMED       
##  3     1 Blan~ somm~ chicken      Menu A      CONFIRMED       
##  4     1 Emaa~ somm~ PENDING      PENDING     PENDING         
##  5     2 Blai~ bpar~ chicken      Menu C      CONFIRMED       
##  6     2 Nige~ bpar~ <NA>         <NA>        CANCELLED       
##  7     3 Sine~ sing~ PENDING      PENDING     PENDING         
##  8     4 Ayra~ mark~ vegetarian   Menu B      PENDING         
##  9     5 Atla~ <NA>  PENDING      PENDING     PENDING         
## 10     5 Denz~ <NA>  fish         Menu B      CONFIRMED       
## # ... with 20 more rows, and 2 more variables: attendance_brunch <chr>,
## #   attendance_golf <chr>
```
…
## 3.3 

##### Make a guestlist that includes everyone we have emails for (in addition to those on the original guestlist).



```text
guest %>% 
  full_join(email_name, by = "name") %>% 
  select(name, email)
```

```
## # A tibble: 33 x 2
##    name             email              
##    <chr>            <chr>              
##  1 Sommer Medrano   sommm@gmail.com    
##  2 Phillip Medrano  sommm@gmail.com    
##  3 Blanka Medrano   sommm@gmail.com    
##  4 Emaan Medrano    sommm@gmail.com    
##  5 Blair Park       bpark@gmail.com    
##  6 Nigel Webb       bpark@gmail.com    
##  7 Sinead English   singlish@hotmail.ca
##  8 Ayra Marks       marksa42@gmail.com 
##  9 Atlanta Connolly <NA>               
## 10 Denzel Connolly  <NA>               
## # ... with 23 more rows
```
